{
    "KPlugin": {
        "Authors": [
            {
                "Email": "joris.guisson@gmail.com, ivasic@gmail.com",
                "Name": "Joris Guisson, Ivan Vasic",
                "Name[bg]": "Joris Guisson, Ivan Vasic",
                "Name[ca@valencia]": "Joris Guisson, Ivan Vasic",
                "Name[ca]": "Joris Guisson, Ivan Vasic",
                "Name[cs]": "Joris Guisson, Ivan Vasic",
                "Name[de]": "Joris Guisson, Ivan Vasic",
                "Name[en_GB]": "Joris Guisson, Ivan Vasic",
                "Name[es]": "Joris Guisson, Ivan Vasic",
                "Name[eu]": "Joris Guisson, Ivan Vasic",
                "Name[fi]": "Joris Guisson, Ivan Vasic",
                "Name[fr]": "Joris Guisson, Ivan Vasic",
                "Name[hu]": "Joris Guisson, Ivan Vasic",
                "Name[ia]": "Joris Guisson, Ivan Vasic",
                "Name[it]": "Joris Guisson, Ivan Vasic",
                "Name[ka]": "Joris Guisson, Ivan Vasic",
                "Name[ko]": "Joris Guisson, Ivan Vasic",
                "Name[nl]": "Joris Guisson, Ivan Vasic",
                "Name[pl]": "Joris Guisson, Ivan Vasic",
                "Name[pt]": "Joris Guisson, Ivan Vasic",
                "Name[pt_BR]": "Joris Guisson, Ivan Vasic",
                "Name[ru]": "Joris Guisson, Ivan Vasic",
                "Name[sl]": "Joris Guisson, Ivan Vasic",
                "Name[sv]": "Joris Guisson, Ivan Vasic",
                "Name[tr]": "Joris Guisson, Ivan Vasic",
                "Name[uk]": "Joris Guisson, Ivan Vasic",
                "Name[x-test]": "xxJoris Guisson, Ivan Vasicxx",
                "Name[zh_CN]": "Joris Guisson、Ivan Vasic"
            }
        ],
        "Description": "Displays the logging output",
        "Description[bg]": "Показване на изхода от дневника",
        "Description[ca@valencia]": "Mostra l'eixida del registre",
        "Description[ca]": "Mostra la sortida del registre",
        "Description[cs]": "Zobrazí výstup záznamu",
        "Description[de]": "Zeigt die Protokollausgaben",
        "Description[en_GB]": "Displays the logging output",
        "Description[es]": "Muestra la salida del registro",
        "Description[eu]": "Egunkariko irteerakoa azaltzen du",
        "Description[fi]": "Näyttää lokitulosteen",
        "Description[fr]": "Affiche la sortie du journal",
        "Description[hu]": "A naplózás kimenetének megjelenítése",
        "Description[ia]": "Monstra le exito de registrar",
        "Description[it]": "Mostra l'output del registro",
        "Description[ko]": "로그 출력 표시",
        "Description[nl]": "Toon de log-uitvoer",
        "Description[pl]": "Wyświetla dziennik powiadomień programu",
        "Description[pt]": "Mostra o resultado de registo",
        "Description[pt_BR]": "Exibe o log de saída",
        "Description[ru]": "Отображение журналов работы KTorrent",
        "Description[sl]": "Prikaži izhod beleženja v dnevnik",
        "Description[sv]": "Visar loggutmatning",
        "Description[tr]": "Günlük kaydı çıktısını görüntüler",
        "Description[uk]": "Показати відомості з журналу",
        "Description[x-test]": "xxDisplays the logging outputxx",
        "Description[zh_CN]": "显示日志输出",
        "EnabledByDefault": false,
        "Icon": "utilities-log-viewer",
        "Id": "LogViewerPlugin",
        "License": "GPL",
        "Name": "Log Viewer",
        "Name[ar]": "عارض السّجلات",
        "Name[bg]": "Преглед на дневника",
        "Name[bs]": "Prikazivač dnevnika",
        "Name[ca@valencia]": "Visor del registre",
        "Name[ca]": "Visualitzador del registre",
        "Name[cs]": "Prohlížeč záznamů",
        "Name[da]": "Logfremviser",
        "Name[de]": "Protokollbetrachter",
        "Name[el]": "Προβολή καταγραφής",
        "Name[en_GB]": "Log Viewer",
        "Name[eo]": "Protokolorigardilo",
        "Name[es]": "Visor del registro",
        "Name[et]": "Loginäitaja",
        "Name[eu]": "Egunkari erakuslea",
        "Name[fi]": "Lokikatselin",
        "Name[fr]": "Afficheur de journaux",
        "Name[ga]": "Amharcán Logchomhad",
        "Name[gl]": "Visor do rexistro",
        "Name[hr]": "Preglednik zapisa",
        "Name[hu]": "Naplómegjelenítő",
        "Name[ia]": "Visor de registro",
        "Name[is]": "Annálaskoðari",
        "Name[it]": "Visore registro",
        "Name[ja]": "ログビューア",
        "Name[ka]": "ჟურნალის ნახვა",
        "Name[kk]": "Журналын қарау",
        "Name[km]": "កម្មវិធី​មើល​កំណត់ហេតុ",
        "Name[ko]": "로그 뷰어",
        "Name[lt]": "Žurnalo žiūryklė",
        "Name[lv]": "Žurnāla skatītājs",
        "Name[mr]": "लॉग प्रदर्शक",
        "Name[nb]": "Loggviser",
        "Name[nds]": "Logbookkieker",
        "Name[nl]": "Log-weergave",
        "Name[nn]": "Loggvisar",
        "Name[pl]": "Przeglądarka dziennika",
        "Name[pt]": "Visualizador do Registo",
        "Name[pt_BR]": "Visualizador de registros (logs)",
        "Name[ro]": "Vizualizator jurnal",
        "Name[ru]": "Просмотр журналов",
        "Name[si]": "වාර්තා දසුන",
        "Name[sk]": "Prehliadač záznamov",
        "Name[sl]": "Pregledovalnik dnevnika",
        "Name[sq]": "Shikuesi i log",
        "Name[sr@ijekavian]": "Приказивач дневника",
        "Name[sr@ijekavianlatin]": "Prikazivač dnevnika",
        "Name[sr@latin]": "Prikazivač dnevnika",
        "Name[sr]": "Приказивач дневника",
        "Name[sv]": "Loggvisning",
        "Name[tr]": "Günlük İzleyicisi",
        "Name[ug]": "خاتىرە كۆرگۈچ",
        "Name[uk]": "Переглядач журналу",
        "Name[x-test]": "xxLog Viewerxx",
        "Name[zh_CN]": "日志查看器",
        "Name[zh_TW]": "紀錄檢視器",
        "Version": "0.1",
        "Website": "http://kde.org/applications/internet/ktorrent/"
    }
}
