{
    "KPlugin": {
        "Authors": [
            {
                "Email": "joris.guisson@gmail.com",
                "Name": "Joris Guisson",
                "Name[bg]": "Joris Guisson",
                "Name[ca@valencia]": "Joris Guisson",
                "Name[ca]": "Joris Guisson",
                "Name[cs]": "Joris Guisson",
                "Name[de]": "Joris Guisson",
                "Name[en_GB]": "Joris Guisson",
                "Name[es]": "Joris Guisson",
                "Name[eu]": "Joris Guisson",
                "Name[fi]": "Joris Guisson",
                "Name[fr]": "Joris Guisson",
                "Name[hu]": "Joris Guisson",
                "Name[ia]": "Joris Guisson",
                "Name[it]": "Joris Guisson",
                "Name[ka]": "Joris Guisson",
                "Name[ko]": "Joris Guisson",
                "Name[nl]": "Joris Guisson",
                "Name[pl]": "Joris Guisson",
                "Name[pt]": "Joris Guisson",
                "Name[pt_BR]": "Joris Guisson",
                "Name[ru]": "Joris Guisson",
                "Name[sl]": "Joris Guisson",
                "Name[sv]": "Joris Guisson",
                "Name[tr]": "Joris Guisson",
                "Name[uk]": "Joris Guisson",
                "Name[x-test]": "xxJoris Guissonxx",
                "Name[zh_CN]": "Joris Guisson"
            }
        ],
        "Description": "Allows you to shutdown your computer when torrents finish",
        "Description[bg]": "Позволява ви да изключите компютъра си, след приключване на торентите",
        "Description[ca@valencia]": "Permet parar l'ordinador en finalitzar els torrent",
        "Description[ca]": "Permet aturar l'ordinador en finalitzar els torrents",
        "Description[cs]": "Umožní vypnutí počítače po dokončení stahování torrentu",
        "Description[de]": "Ermöglicht es, den Rechner herunterzufahren, wenn die Torrents abgeschlossen wurden",
        "Description[en_GB]": "Allows you to shutdown your computer when torrents finish",
        "Description[es]": "Le permite apagar su equipo cuando finalicen los torrents",
        "Description[eu]": "Torrentak amaitzen direnean zure ordenagailua itzaltzeko aukera ematen du",
        "Description[fi]": "Sallii torrenttien valmistuttua tietokoneen sammutuksen",
        "Description[fr]": "Vous permet d'arrêter l'ordinateur lorsque les torrents sont terminés",
        "Description[hu]": "Lehetővé teszi a számítógép leállítását, ha a torrentek befejeződtek",
        "Description[it]": "Permette lo spegnimento del computer quando termina un torrent",
        "Description[ko]": "토렌트가 완료되었을 때 컴퓨터 끄기",
        "Description[nl]": "Staat u toe uw computer af te sluiten na het beëindigen van torrents",
        "Description[pl]": "Umożliwia wyłączenie komputera po zakończeniu działania torrenta",
        "Description[pt]": "Permite-lhe encerrar o seu computador quando terminarem as torrentes",
        "Description[pt_BR]": "Permite-lhe desligar seu computador ao concluir os torrents",
        "Description[ru]": "Завершение работы компьютера",
        "Description[sl]": "Omogoči izklop računalnika, ko se torrenti zaključijo",
        "Description[sv]": "Låter dig stänga av datorn när dataflöden är klara",
        "Description[tr]": "Torrentler bittiği zaman bilgisayarınızın otomatik olarak kapanmasına izin verir",
        "Description[uk]": "Надає вам змогу вимкнути комп’ютер після завершення отримання торента",
        "Description[x-test]": "xxAllows you to shutdown your computer when torrents finishxx",
        "Description[zh_CN]": "允许您在种子完成时关闭计算机",
        "EnabledByDefault": false,
        "Icon": "system-shutdown",
        "Id": "ShutdownPlugin",
        "License": "GPL",
        "Name": "Shutdown",
        "Name[ar]": "الإطفاء",
        "Name[bg]": "Изключване",
        "Name[bs]": "Ugasi",
        "Name[ca@valencia]": "Parada",
        "Name[ca]": "Aturada",
        "Name[cs]": "Vypnout",
        "Name[da]": "Nedlukning",
        "Name[de]": "Herunterfahren",
        "Name[el]": "Κλείσιμο",
        "Name[en_GB]": "Shutdown",
        "Name[eo]": "Sistemfermi",
        "Name[es]": "Apagar",
        "Name[et]": "Seiskamine",
        "Name[eu]": "Itzali",
        "Name[fi]": "Sammuta",
        "Name[fr]": "Arrêt",
        "Name[ga]": "Múchadh",
        "Name[gl]": "Apagado",
        "Name[hr]": "Isključivanje",
        "Name[hu]": "Kikapcsolás",
        "Name[ia]": "Stoppa (Shutdown)",
        "Name[is]": "Slökkva á tölvunni",
        "Name[it]": "Spegnimento",
        "Name[ja]": "シャットダウン",
        "Name[ka]": "გამორთვა",
        "Name[kk]": "Сөндіру",
        "Name[km]": "បិទ",
        "Name[ko]": "시스템 종료",
        "Name[lt]": "Išjungti",
        "Name[lv]": "Izslēgt",
        "Name[mr]": "बंद करा",
        "Name[nb]": "Slå av maskinen",
        "Name[nds]": "Utmaken",
        "Name[nl]": "Afsluiten",
        "Name[nn]": "Slå av",
        "Name[pl]": "Wyłączanie komputera",
        "Name[pt]": "Encerramento",
        "Name[pt_BR]": "Desligar",
        "Name[ro]": "Oprire",
        "Name[ru]": "Завершение работы",
        "Name[si]": "වසාදමන්න",
        "Name[sk]": "Vypnutie",
        "Name[sl]": "Izklop",
        "Name[sq]": "Fike",
        "Name[sr@ijekavian]": "Гашење",
        "Name[sr@ijekavianlatin]": "Gašenje",
        "Name[sr@latin]": "Gašenje",
        "Name[sr]": "Гашење",
        "Name[sv]": "Stäng av",
        "Name[tr]": "Kapat",
        "Name[ug]": "تاقا",
        "Name[uk]": "Вимкнути",
        "Name[x-test]": "xxShutdownxx",
        "Name[zh_CN]": "关机",
        "Name[zh_TW]": "關機",
        "Version": "0.1",
        "Website": "http://kde.org/applications/internet/ktorrent/"
    }
}
