{
    "KPlugin": {
        "Authors": [
            {
                "Email": "joris.guisson@gmail.com, ivasic@gmail.com",
                "Name": "Joris Guisson, Ivan Vasic",
                "Name[bg]": "Joris Guisson, Ivan Vasic",
                "Name[ca@valencia]": "Joris Guisson, Ivan Vasic",
                "Name[ca]": "Joris Guisson, Ivan Vasic",
                "Name[cs]": "Joris Guisson, Ivan Vasic",
                "Name[de]": "Joris Guisson, Ivan Vasic",
                "Name[en_GB]": "Joris Guisson, Ivan Vasic",
                "Name[es]": "Joris Guisson, Ivan Vasic",
                "Name[eu]": "Joris Guisson, Ivan Vasic",
                "Name[fi]": "Joris Guisson, Ivan Vasic",
                "Name[fr]": "Joris Guisson, Ivan Vasic",
                "Name[hu]": "Joris Guisson, Ivan Vasic",
                "Name[ia]": "Joris Guisson, Ivan Vasic",
                "Name[it]": "Joris Guisson, Ivan Vasic",
                "Name[ka]": "Joris Guisson, Ivan Vasic",
                "Name[ko]": "Joris Guisson, Ivan Vasic",
                "Name[nl]": "Joris Guisson, Ivan Vasic",
                "Name[pl]": "Joris Guisson, Ivan Vasic",
                "Name[pt]": "Joris Guisson, Ivan Vasic",
                "Name[pt_BR]": "Joris Guisson, Ivan Vasic",
                "Name[ru]": "Joris Guisson, Ivan Vasic",
                "Name[sl]": "Joris Guisson, Ivan Vasic",
                "Name[sv]": "Joris Guisson, Ivan Vasic",
                "Name[tr]": "Joris Guisson, Ivan Vasic",
                "Name[uk]": "Joris Guisson, Ivan Vasic",
                "Name[x-test]": "xxJoris Guisson, Ivan Vasicxx",
                "Name[zh_CN]": "Joris Guisson、Ivan Vasic"
            }
        ],
        "Description": "Displays general information about a torrent in several tabs",
        "Description[bg]": "Показва обща информация за торента в няколко подпрозореца",
        "Description[ca@valencia]": "Mostra informació general quant a un torrent en diverses pestanyes",
        "Description[ca]": "Mostra informació general quant a un torrent en diverses pestanyes",
        "Description[cs]": "Zobrazuje v kartách obecné informace o torrentu",
        "Description[de]": "Anzeige von allgemeinen Informationen über einen Torrent in mehreren Unterfenstern",
        "Description[en_GB]": "Displays general information about a torrent in several tabs",
        "Description[es]": "Muestra información general sobre un torrent en varias pestañas",
        "Description[eu]": "Torrent bati buruzko informazioa hainbat fitxatan azaltzen du",
        "Description[fi]": "Näyttää torrentista yleistietoa eri välilehdillä",
        "Description[fr]": "Affiche des informations générales concernant un torrent dans plusieurs onglets",
        "Description[hu]": "Általános információk megjelenítése több lapon egy torrentről",
        "Description[ia]": "Monstra information general re un torrnt in multe schedas",
        "Description[it]": "Visualizza in diverse schede le informazioni generali sul torrent",
        "Description[ko]": "여러 탭에 토렌트 일반 정보 표시",
        "Description[nl]": "Geef informatie over een torrent, verdeeld over meerdere tabbladen",
        "Description[pl]": "Wyświetlanie informacji o torrencie w osobnych kartach",
        "Description[pt]": "Mostra informações gerais sobre uma torrente em várias páginas",
        "Description[pt_BR]": "Exibe informações gerais sobre um torrent em diversas abas",
        "Description[ru]": "Показывает разные сведения о торрентах, распределяя их по нескольким вкладкам",
        "Description[sl]": "V več zavihkih prikaži splošne podrobnosti o torentu",
        "Description[sv]": "Visa allmän information om ett dataflöde under flera flikar",
        "Description[tr]": "Çeşitli sekmelerde bir torrent hakkındaki genel bilgileri göster",
        "Description[uk]": "Показ загальної інформації про торент у декількох вкладках",
        "Description[x-test]": "xxDisplays general information about a torrent in several tabsxx",
        "Description[zh_CN]": "在若干标签内显示一个种子的常规信息",
        "EnabledByDefault": true,
        "Icon": "kt-info-widget",
        "Id": "InfoWidgetPlugin",
        "License": "GPL",
        "Name": "Information Widget",
        "Name[ar]": "ودجة المعلومات",
        "Name[bg]": "Джаджа с данни",
        "Name[bs]": "Widget podataka",
        "Name[ca@valencia]": "Giny d'informació",
        "Name[ca]": "Giny d'informació",
        "Name[cs]": "Informační widget",
        "Name[da]": "Informations-widget",
        "Name[de]": "Informationen",
        "Name[el]": "Συστατικό πληροφοριών",
        "Name[en_GB]": "Information Widget",
        "Name[es]": "Elemento de información",
        "Name[et]": "Teabevidim",
        "Name[eu]": "Informazio trepeta",
        "Name[fi]": "Tietoliitännäinen",
        "Name[fr]": "Composant graphique d'informations",
        "Name[ga]": "Giuirléid Eolais",
        "Name[gl]": "Trebello de información",
        "Name[hr]": "Informacijski widget",
        "Name[hu]": "Információs kisalkalmazás",
        "Name[ia]": "Widget de Information",
        "Name[is]": "Upplýsingagræja",
        "Name[it]": "Pannello informazioni",
        "Name[ja]": "情報ウィジェット",
        "Name[ka]": "საინფორმაციო ვიჯეტი",
        "Name[kk]": "Ақпарат виджеті",
        "Name[km]": "ធាតុ​ក្រាហ្វិក​របស់​ព័ត៌មាន",
        "Name[ko]": "정보 위젯",
        "Name[lt]": "Informacinis valdiklis",
        "Name[lv]": "Informācijas sīkrīks",
        "Name[mr]": "माहिती विजेट",
        "Name[nb]": "Informasjonselement",
        "Name[nds]": "Informatschonen-Element",
        "Name[nl]": "Informatie-widget",
        "Name[nn]": "Informasjonsvindauge",
        "Name[pl]": "Informacyjny element interfejsu",
        "Name[pt]": "Item de Informação",
        "Name[pt_BR]": "Widget de informações",
        "Name[ro]": "Control grafic informativ",
        "Name[ru]": "Сведения",
        "Name[si]": "තොරතුරු විජෙට්ටුව",
        "Name[sk]": "Informačný komponent",
        "Name[sl]": "Gradnik s podrobnostmi",
        "Name[sr@ijekavian]": "Виџет података",
        "Name[sr@ijekavianlatin]": "Vidžet podataka",
        "Name[sr@latin]": "Vidžet podataka",
        "Name[sr]": "Виџет података",
        "Name[sv]": "Informationskomponent",
        "Name[tr]": "Bilgi Penceresi",
        "Name[uk]": "Інформаційний віджет",
        "Name[x-test]": "xxInformation Widgetxx",
        "Name[zh_CN]": "信息部件",
        "Name[zh_TW]": "資訊元件",
        "Version": "0.1",
        "Website": "http://kde.org/applications/internet/ktorrent/"
    }
}
